BE/Anemo+avalon/anemometre/simulation/qsim/Anemometre.msim.vcd
$comment
	File created using the following command:
		vcd file Anemometre.msim.vcd -direction
$end
$date
	Tue Oct 18 14:02:42 2022
$end
$version
	ModelSim Version 10.5b
$end
$timescale
	1ps
$end

$scope module block1_vhd_vec_tst $end
$var wire 1 ! CLK_50M $end
$var wire 1 " continu $end
$var wire 1 # data_anemometre [7] $end
$var wire 1 $ data_anemometre [6] $end
$var wire 1 % data_anemometre [5] $end
$var wire 1 & data_anemometre [4] $end
$var wire 1 ' data_anemometre [3] $end
$var wire 1 ( data_anemometre [2] $end
$var wire 1 ) data_anemometre [1] $end
$var wire 1 * data_anemometre [0] $end
$var wire 1 + data_valid $end
$var wire 1 , in_freq_anemometre $end
$var wire 1 - raz_n $end
$var wire 1 . start_stop $end

$scope module i1 $end
$var wire 1 / gnd $end
$var wire 1 0 vcc $end
$var wire 1 1 unknown $end
$var wire 1 2 devoe $end
$var wire 1 3 devclrn $end
$var wire 1 4 devpor $end
$var wire 1 5 ww_devoe $end
$var wire 1 6 ww_devclrn $end
$var wire 1 7 ww_devpor $end
$var wire 1 8 ww_CLK_50M $end
$var wire 1 9 ww_continu $end
$var wire 1 : ww_start_stop $end
$var wire 1 ; ww_in_freq_anemometre $end
$var wire 1 < ww_raz_n $end
$var wire 1 = ww_data_valid $end
$var wire 1 > ww_data_anemometre [7] $end
$var wire 1 ? ww_data_anemometre [6] $end
$var wire 1 @ ww_data_anemometre [5] $end
$var wire 1 A ww_data_anemometre [4] $end
$var wire 1 B ww_data_anemometre [3] $end
$var wire 1 C ww_data_anemometre [2] $end
$var wire 1 D ww_data_anemometre [1] $end
$var wire 1 E ww_data_anemometre [0] $end
$var wire 1 F \in_freq_anemometre~inputclkctrl_INCLK_bus\ [3] $end
$var wire 1 G \in_freq_anemometre~inputclkctrl_INCLK_bus\ [2] $end
$var wire 1 H \in_freq_anemometre~inputclkctrl_INCLK_bus\ [1] $end
$var wire 1 I \in_freq_anemometre~inputclkctrl_INCLK_bus\ [0] $end
$var wire 1 J \CLK_50M~inputclkctrl_INCLK_bus\ [3] $end
$var wire 1 K \CLK_50M~inputclkctrl_INCLK_bus\ [2] $end
$var wire 1 L \CLK_50M~inputclkctrl_INCLK_bus\ [1] $end
$var wire 1 M \CLK_50M~inputclkctrl_INCLK_bus\ [0] $end
$var wire 1 N \data_valid~output_o\ $end
$var wire 1 O \data_anemometre[0]~output_o\ $end
$var wire 1 P \data_anemometre[1]~output_o\ $end
$var wire 1 Q \data_anemometre[2]~output_o\ $end
$var wire 1 R \data_anemometre[3]~output_o\ $end
$var wire 1 S \data_anemometre[4]~output_o\ $end
$var wire 1 T \data_anemometre[5]~output_o\ $end
$var wire 1 U \data_anemometre[6]~output_o\ $end
$var wire 1 V \data_anemometre[7]~output_o\ $end
$var wire 1 W \CLK_50M~input_o\ $end
$var wire 1 X \CLK_50M~inputclkctrl_outclk\ $end
$var wire 1 Y \start_stop~input_o\ $end
$var wire 1 Z \continu~input_o\ $end
$var wire 1 [ \b2v_inst4|tmp~0_combout\ $end
$var wire 1 \ \b2v_inst4|data_valid~q\ $end
$var wire 1 ] \in_freq_anemometre~input_o\ $end
$var wire 1 ^ \in_freq_anemometre~inputclkctrl_outclk\ $end
$var wire 1 _ \b2v_inst|cpt[0]~21_combout\ $end
$var wire 1 ` \raz_n~input_o\ $end
$var wire 1 a \b2v_inst2|cpt[0]~2_combout\ $end
$var wire 1 b \b2v_inst2|cpt~0_combout\ $end
$var wire 1 c \b2v_inst2|cpt~1_combout\ $end
$var wire 1 d \b2v_inst2|Add0~0_combout\ $end
$var wire 1 e \b2v_inst2|clk_1hz~0_combout\ $end
$var wire 1 f \b2v_inst2|clk_1hz~1_combout\ $end
$var wire 1 g \b2v_inst2|clk_1hz~q\ $end
$var wire 1 h \b2v_inst6|etat[1]~0_combout\ $end
$var wire 1 i \b2v_inst6|edge~0_combout\ $end
$var wire 1 j \b2v_inst6|edge~q\ $end
$var wire 1 k \b2v_inst4|tmp1[0]~0_combout\ $end
$var wire 1 l \b2v_inst4|tmp~1_combout\ $end
$var wire 1 m \b2v_inst4|tmp~2_combout\ $end
$var wire 1 n \b2v_inst4|data_anemometre~0_combout\ $end
$var wire 1 o \b2v_inst4|data_anemometre[0]~1_combout\ $end
$var wire 1 p \b2v_inst|cpt[1]~7_combout\ $end
$var wire 1 q \b2v_inst4|tmp1[1]~feeder_combout\ $end
$var wire 1 r \b2v_inst4|tmp~3_combout\ $end
$var wire 1 s \b2v_inst4|data_anemometre~2_combout\ $end
$var wire 1 t \b2v_inst|cpt[1]~8\ $end
$var wire 1 u \b2v_inst|cpt[2]~9_combout\ $end
$var wire 1 v \b2v_inst4|tmp1[2]~feeder_combout\ $end
$var wire 1 w \b2v_inst4|tmp~4_combout\ $end
$var wire 1 x \b2v_inst4|data_anemometre~3_combout\ $end
$var wire 1 y \b2v_inst|cpt[2]~10\ $end
$var wire 1 z \b2v_inst|cpt[3]~11_combout\ $end
$var wire 1 { \b2v_inst4|tmp1[3]~feeder_combout\ $end
$var wire 1 | \b2v_inst4|tmp~5_combout\ $end
$var wire 1 } \b2v_inst4|data_anemometre~4_combout\ $end
$var wire 1 ~ \b2v_inst|cpt[3]~12\ $end
$var wire 1 !! \b2v_inst|cpt[4]~13_combout\ $end
$var wire 1 "! \b2v_inst4|tmp1[4]~feeder_combout\ $end
$var wire 1 #! \b2v_inst4|tmp~6_combout\ $end
$var wire 1 $! \b2v_inst4|data_anemometre~5_combout\ $end
$var wire 1 %! \b2v_inst|cpt[4]~14\ $end
$var wire 1 &! \b2v_inst|cpt[5]~15_combout\ $end
$var wire 1 '! \b2v_inst4|tmp1[5]~feeder_combout\ $end
$var wire 1 (! \b2v_inst4|tmp~7_combout\ $end
$var wire 1 )! \b2v_inst4|data_anemometre~6_combout\ $end
$var wire 1 *! \b2v_inst|cpt[5]~16\ $end
$var wire 1 +! \b2v_inst|cpt[6]~17_combout\ $end
$var wire 1 ,! \b2v_inst4|tmp1[6]~feeder_combout\ $end
$var wire 1 -! \b2v_inst4|tmp~8_combout\ $end
$var wire 1 .! \b2v_inst4|data_anemometre~7_combout\ $end
$var wire 1 /! \b2v_inst|cpt[6]~18\ $end
$var wire 1 0! \b2v_inst|cpt[7]~19_combout\ $end
$var wire 1 1! \b2v_inst4|tmp1[7]~feeder_combout\ $end
$var wire 1 2! \b2v_inst4|tmp~9_combout\ $end
$var wire 1 3! \b2v_inst4|data_anemometre~8_combout\ $end
$var wire 1 4! \b2v_inst|cpt\ [7] $end
$var wire 1 5! \b2v_inst|cpt\ [6] $end
$var wire 1 6! \b2v_inst|cpt\ [5] $end
$var wire 1 7! \b2v_inst|cpt\ [4] $end
$var wire 1 8! \b2v_inst|cpt\ [3] $end
$var wire 1 9! \b2v_inst|cpt\ [2] $end
$var wire 1 :! \b2v_inst|cpt\ [1] $end
$var wire 1 ;! \b2v_inst|cpt\ [0] $end
$var wire 1 <! \b2v_inst4|data_anemometre\ [7] $end
$var wire 1 =! \b2v_inst4|data_anemometre\ [6] $end
$var wire 1 >! \b2v_inst4|data_anemometre\ [5] $end
$var wire 1 ?! \b2v_inst4|data_anemometre\ [4] $end
$var wire 1 @! \b2v_inst4|data_anemometre\ [3] $end
$var wire 1 A! \b2v_inst4|data_anemometre\ [2] $end
$var wire 1 B! \b2v_inst4|data_anemometre\ [1] $end
$var wire 1 C! \b2v_inst4|data_anemometre\ [0] $end
$var wire 1 D! \b2v_inst4|tmp\ [7] $end
$var wire 1 E! \b2v_inst4|tmp\ [6] $end
$var wire 1 F! \b2v_inst4|tmp\ [5] $end
$var wire 1 G! \b2v_inst4|tmp\ [4] $end
$var wire 1 H! \b2v_inst4|tmp\ [3] $end
$var wire 1 I! \b2v_inst4|tmp\ [2] $end
$var wire 1 J! \b2v_inst4|tmp\ [1] $end
$var wire 1 K! \b2v_inst4|tmp\ [0] $end
$var wire 1 L! \b2v_inst4|tmp1\ [7] $end
$var wire 1 M! \b2v_inst4|tmp1\ [6] $end
$var wire 1 N! \b2v_inst4|tmp1\ [5] $end
$var wire 1 O! \b2v_inst4|tmp1\ [4] $end
$var wire 1 P! \b2v_inst4|tmp1\ [3] $end
$var wire 1 Q! \b2v_inst4|tmp1\ [2] $end
$var wire 1 R! \b2v_inst4|tmp1\ [1] $end
$var wire 1 S! \b2v_inst4|tmp1\ [0] $end
$var wire 1 T! \b2v_inst6|etat\ [1] $end
$var wire 1 U! \b2v_inst6|etat\ [0] $end
$var wire 1 V! \b2v_inst2|cpt\ [3] $end
$var wire 1 W! \b2v_inst2|cpt\ [2] $end
$var wire 1 X! \b2v_inst2|cpt\ [1] $end
$var wire 1 Y! \b2v_inst2|cpt\ [0] $end
$var wire 1 Z! \ALT_INV_raz_n~input_o\ $end
$upscope $end
$upscope $end
$enddefinitions $end
#0
$dumpvars
1!
0"
0+
1,
0-
0.
0/
10
x1
12
13
14
15
16
17
18
09
0:
1;
0<
0=
0N
0O
0P
0Q
0R
0S
0T
0U
0V
xW
xX
xY
xZ
x[
0\
x]
x^
x_
x`
1a
xb
xc
xd
xe
xf
0g
xh
xi
0j
xk
xl
xm
xn
xo
xp
xq
xr
xs
xt
xu
xv
xw
xx
xy
xz
x{
x|
x}
x~
x!!
x"!
x#!
x$!
x%!
x&!
x'!
x(!
x)!
x*!
x+!
x,!
x-!
x.!
x/!
x0!
x1!
x2!
x3!
xZ!
0#
0$
0%
0&
0'
0(
0)
0*
0>
0?
0@
0A
0B
0C
0D
0E
04!
05!
06!
07!
08!
09!
0:!
0;!
0<!
0=!
0>!
0?!
0@!
0A!
0B!
0C!
0D!
0E!
0F!
0G!
0H!
0I!
0J!
0K!
0L!
0M!
0N!
0O!
0P!
0Q!
0R!
0S!
0T!
xU!
0V!
0W!
0X!
0Y!
1J
1K
1L
xM
1F
1G
1H
xI
$end
#441
0d
#443
0b
#514
1W
1M
#516
1]
1I
#527
0r
#528
0$!
#534
0w
#549
0x
#550
0(!
#551
02!
0}
#552
0#!
#553
0|
#554
03!
#561
0,!
#563
0q
#585
01!
#659
0)!
#668
1X
#670
1^
#674
0c
#676
0*!
#678
0t
#679
0Z
#681
0`
0~
0-!
0Y
1Z!
#682
0.!
#693
0{
#716
0'!
#718
0"!
0v
#719
1_
#721
1f
#729
0e
#734
1/!
#736
1y
#739
1%!
#747
0i
#777
0h
#826
0l
#827
0n
#828
0s
#847
0p
#1113
0+!
#1115
0u
#1118
0!!
#1171
00!
#1173
0z
#1176
0&!
#3894
0[
#4069
1k
#4171
0m
#4196
1o
#100000
0!
08
#100679
0W
0M
#100817
0X
#150000
1"
19
#150514
1Z
#153469
1[
#153636
0k
#153701
1m
#153743
0o
#200000
1!
18
#200514
1W
1M
#200668
1X
#202414
1g
1Y!
1\
#202783
0a
#203037
1e
#203045
1c
#203119
1i
#203152
1h
#205544
1N
1=
1+
#300000
0!
08
#300679
0W
0M
#300817
0X
#400000
1!
18
#400514
1W
1M
#400668
1X
#402414
1j
1X!
0Y!
#402415
1T!
#402767
1a
#402783
0c
#402845
1o
#402949
0m
#403136
1c
#403353
0i
#500000
0!
08
#500679
0W
0M
#500817
0X
#600000
1!
18
#600514
1W
1M
#600668
1X
#602414
0j
1Y!
#602783
0a
#602786
1d
#602926
0o
#603024
1m
#603053
0c
#700000
0!
08
#700679
0W
0M
#700817
0X
#710000
0"
09
#710679
0Z
#713894
0[
#714069
1k
#714171
0m
#714196
1o
#800000
1!
18
#800514
1W
1M
#800668
1X
#802414
1W!
0X!
0Y!
0\
#802767
1a
1c
#802783
0d
#802865
1d
#802974
0e
#803052
0f
#803144
0c
#805549
0N
0=
0+
#900000
0!
08
#900679
0W
0M
#900817
0X
#1000000
1!
0,
18
0;
#1000514
1W
1M
#1000668
1X
#1000681
0]
0I
#1000819
0^
#1002414
0g
1Y!
#1002783
0a
#1003045
1c
#1003191
0h
#1100000
0!
08
#1100679
0W
0M
#1100817
0X
#1200000
1!
18
#1200514
1W
1M
#1200668
1X
#1202414
1X!
0Y!
#1202415
0T!
#1202767
1a
#1202783
0c
#1202890
1e
#1203136
1c
#1203143
0e
#1300000
0!
08
#1300679
0W
0M
#1300817
0X
#1400000
1!
18
#1400514
1W
1M
#1400668
1X
#1402414
1Y!
#1402776
0d
#1402783
0a
#1402787
1b
#1403037
1e
#1403053
0c
#1500000
0!
08
#1500679
0W
0M
#1500817
0X
#1600000
1!
18
#1600514
1W
1M
#1600668
1X
#1602414
0W!
0X!
1V!
0Y!
#1602767
1a
1c
1d
#1602783
0b
#1602855
0d
#1602867
1b
#1603016
1f
#1603088
0c
#1603143
0e
#1603151
0f
#1700000
0!
08
#1700679
0W
0M
#1700817
0X
#1800000
1!
18
#1800514
1W
1M
#1800668
1X
#1802414
1Y!
#1802777
0b
#1802783
0a
#1803037
1e
#1900000
0!
08
#1900679
0W
0M
#1900817
0X
#2000000
1!
1,
18
1;
#2000514
1W
1M
#2000516
1]
1I
#2000668
1X
#2000670
1^
#2002414
0V!
0Y!
#2002430
1;!
#2002767
1a
#2002842
1c
#2003078
0_
#2003101
1f
#2003143
0e
#2003144
0c
#2003177
1p
#2100000
0!
08
#2100679
0W
0M
#2100817
0X
#2200000
1!
18
#2200514
1W
1M
#2200668
1X
#2202414
1g
1Y!
#2202415
1S!
#2202783
0a
#2203037
1e
#2203045
1c
#2203119
1i
#2203152
1h
#2203188
1l
#2300000
0!
08
#2300679
0W
0M
#2300817
0X
#2400000
1!
18
#2400514
1W
1M
#2400668
1X
#2402414
1j
1X!
0Y!
#2402415
1T!
#2402767
1a
#2402783
0c
#2402959
1m
#2403110
0k
#2403136
1c
#2403353
0i
#2500000
0!
08
#2500679
0W
0M
#2500817
0X
#2600000
1!
18
#2600514
1W
1M
#2600668
1X
#2602414
0j
1Y!
#2602415
1K!
#2602783
0a
#2602786
1d
#2603014
0m
#2603053
0c
#2603182
1k
#2700000
0!
08
#2700679
0W
0M
#2700817
0X
#2800000
1!
18
#2800514
1W
1M
#2800668
1X
#2802414
1W!
0X!
0Y!
#2802767
1a
1c
#2802783
0d
#2802865
1d
#2802974
0e
#2803052
0f
#2803144
0c
#2900000
0!
08
#2900679
0W
0M
#2900817
0X
#3000000
1!
0,
18
0;
#3000514
1W
1M
#3000668
1X
#3000681
0]
0I
#3000819
0^
#3002414
0g
1Y!
#3002783
0a
#3003045
1c
#3003191
0h
#3100000
0!
08
#3100679
0W
0M
#3100817
0X
#3200000
1!
18
#3200514
1W
1M
#3200668
1X
#3202414
1X!
0Y!
#3202415
0T!
#3202767
1a
#3202783
0c
#3202890
1e
#3203136
1c
#3203143
0e
#3300000
0!
08
#3300679
0W
0M
#3300817
0X
#3400000
1!
18
#3400514
1W
1M
#3400668
1X
#3402414
1Y!
#3402776
0d
#3402783
0a
#3402787
1b
#3403037
1e
#3403053
0c
#3500000
0!
08
#3500679
0W
0M
#3500817
0X
#3600000
1!
18
#3600514
1W
1M
#3600668
1X
#3602414
0W!
0X!
1V!
0Y!
#3602767
1a
1c
1d
#3602783
0b
#3602855
0d
#3602867
1b
#3603016
1f
#3603088
0c
#3603143
0e
#3603151
0f
#3700000
0!
08
#3700679
0W
0M
#3700817
0X
#3800000
1!
18
#3800514
1W
1M
#3800668
1X
#3802414
1Y!
#3802777
0b
#3802783
0a
#3803037
1e
#3900000
0!
08
#3900679
0W
0M
#3900817
0X
#4000000
1!
1,
18
1;
#4000514
1W
1M
#4000516
1]
1I
#4000668
1X
#4000670
1^
#4002414
0V!
0Y!
#4002430
1:!
0;!
#4002767
1a
#4002842
1c
#4002943
1q
#4003070
0p
#4003101
1f
#4003139
1t
#4003143
0e
#4003144
0c
#4003149
1_
#4003226
0t
#4003252
1p
#4003594
1u
#4003663
0u
#4100000
0!
08
#4100679
0W
0M
#4100817
0X
#4200000
1!
18
#4200514
1W
1M
#4200668
1X
#4202414
1g
1Y!
#4202415
1R!
0S!
#4202783
0a
#4202897
1r
#4203037
1e
#4203045
1c
#4203119
1i
#4203152
1h
#4203241
0l
#4300000
0!
08
#4300679
0W
0M
#4300817
0X
#4400000
1!
18
#4400514
1W
1M
#4400668
1X
#4402414
1j
1X!
0Y!
#4402415
1T!
#4402767
1a
#4402783
0c
#4402959
1m
#4403110
0k
#4403136
1c
#4403353
0i
#4500000
0!
08
#4500679
0W
0M
#4500817
0X
#4600000
1!
18
#4600514
1W
1M
#4600668
1X
#4602414
0j
1Y!
#4602415
1J!
0K!
#4602783
0a
#4602786
1d
#4603014
0m
#4603053
0c
#4603182
1k
#4700000
0!
08
#4700679
0W
0M
#4700817
0X
#4800000
1!
18
#4800514
1W
1M
#4800668
1X
#4802414
1W!
0X!
0Y!
#4802767
1a
1c
#4802783
0d
#4802865
1d
#4802974
0e
#4803052
0f
#4803144
0c
#4900000
0!
08
#4900679
0W
0M
#4900817
0X
#5000000
1!
0,
18
0;
#5000514
1W
1M
#5000668
1X
#5000681
0]
0I
#5000819
0^
#5002414
0g
1Y!
#5002783
0a
#5003045
1c
#5003191
0h
#5100000
0!
08
#5100679
0W
0M
#5100817
0X
#5200000
1!
18
#5200514
1W
1M
#5200668
1X
#5202414
1X!
0Y!
#5202415
0T!
#5202767
1a
#5202783
0c
#5202890
1e
#5203136
1c
#5203143
0e
#5300000
0!
08
#5300679
0W
0M
#5300817
0X
#5400000
1!
18
#5400514
1W
1M
#5400668
1X
#5402414
1Y!
#5402776
0d
#5402783
0a
#5402787
1b
#5403037
1e
#5403053
0c
#5500000
0!
08
#5500679
0W
0M
#5500817
0X
#5600000
1!
18
#5600514
1W
1M
#5600668
1X
#5602414
0W!
0X!
1V!
0Y!
#5602767
1a
1c
1d
#5602783
0b
#5602855
0d
#5602867
1b
#5603016
1f
#5603088
0c
#5603143
0e
#5603151
0f
#5700000
0!
08
#5700679
0W
0M
#5700817
0X
#5800000
1!
18
#5800514
1W
1M
#5800668
1X
#5802414
1Y!
#5802777
0b
#5802783
0a
#5803037
1e
#5900000
0!
08
#5900679
0W
0M
#5900817
0X
#6000000
1!
1,
18
1;
#6000514
1W
1M
#6000516
1]
1I
#6000668
1X
#6000670
1^
#6002414
0V!
0Y!
#6002430
1;!
#6002767
1a
#6002842
1c
#6003078
0_
#6003101
1f
#6003143
0e
#6003144
0c
#6003202
0p
#6003279
1t
#6003734
1u
#6100000
0!
08
#6100679
0W
0M
#6100817
0X
#6200000
1!
18
#6200514
1W
1M
#6200668
1X
#6202414
1g
1Y!
#6202415
1S!
#6202783
0a
#6203037
1e
#6203045
1c
#6203119
1i
#6203152
1h
#6203188
1l
#6300000
0!
08
#6300679
0W
0M
#6300817
0X
#6400000
1!
18
#6400514
1W
1M
#6400668
1X
#6402414
1j
1X!
0Y!
#6402415
1T!
#6402767
1a
#6402783
0c
#6402959
1m
#6403110
0k
#6403136
1c
#6403353
0i
#6500000
0!
08
#6500679
0W
0M
#6500817
0X
#6600000
1!
18
#6600514
1W
1M
#6600668
1X
#6602414
0j
1Y!
#6602415
1K!
#6602783
0a
#6602786
1d
#6603014
0m
#6603053
0c
#6603182
1k
#6700000
0!
08
#6700679
0W
0M
#6700817
0X
#6800000
1!
18
#6800514
1W
1M
#6800668
1X
#6802414
1W!
0X!
0Y!
#6802767
1a
1c
#6802783
0d
#6802865
1d
#6802974
0e
#6803052
0f
#6803144
0c
#6900000
0!
08
#6900679
0W
0M
#6900817
0X
#7000000
1!
0,
18
0;
#7000514
1W
1M
#7000668
1X
#7000681
0]
0I
#7000819
0^
#7002414
0g
1Y!
#7002783
0a
#7003045
1c
#7003191
0h
#7100000
0!
08
#7100679
0W
0M
#7100817
0X
#7200000
1!
18
#7200514
1W
1M
#7200668
1X
#7202414
1X!
0Y!
#7202415
0T!
#7202767
1a
#7202783
0c
#7202890
1e
#7203136
1c
#7203143
0e
#7300000
0!
08
#7300679
0W
0M
#7300817
0X
#7400000
1!
18
#7400514
1W
1M
#7400668
1X
#7402414
1Y!
#7402776
0d
#7402783
0a
#7402787
1b
#7403037
1e
#7403053
0c
#7500000
0!
08
#7500679
0W
0M
#7500817
0X
#7600000
1!
18
#7600514
1W
1M
#7600668
1X
#7602414
0W!
0X!
1V!
0Y!
#7602767
1a
1c
1d
#7602783
0b
#7602855
0d
#7602867
1b
#7603016
1f
#7603088
0c
#7603143
0e
#7603151
0f
#7680000
1.
1:
#7680516
1Y
#7682179
1n
#7682180
1s
1[
#7682309
0k
#7700000
0!
08
#7700679
0W
0M
#7700817
0X
#7800000
1!
18
#7800514
1W
1M
#7800668
1X
#7802414
1B!
1C!
1Y!
1\
#7802777
0b
#7802783
0a
#7803037
1e
#7805544
1N
1=
1+
#7807076
1P
1D
1)
#7807159
1O
1E
1*
#7900000
0!
08
#7900679
0W
0M
#7900817
0X
#8000000
1!
1,
18
1;
#8000514
1W
1M
#8000516
1]
1I
#8000668
1X
#8000670
1^
#8002414
0V!
0Y!
#8002430
19!
0:!
0;!
#8002767
1a
#8002842
1c
#8002993
0q
#8003019
0y
#8003074
0u
#8003084
1v
#8003101
1f
#8003108
0t
#8003132
1p
#8003143
0e
#8003144
0c
#8003149
1_
#8003166
1y
#8003277
0p
#8003474
1z
#8003563
1u
#8003603
0z
#8100000
0!
08
#8100679
0W
0M
#8100817
0X
#8200000
1!
18
#8200514
1W
1M
#8200668
1X
#8202414
1g
1Y!
#8202783
0a
#8203037
1e
#8203045
1c
#8203119
1i
#8203152
1h
#8300000
0!
08
#8300679
0W
0M
#8300817
0X
#8400000
1!
18
#8400514
1W
1M
#8400668
1X
#8402414
1j
1X!
0Y!
#8402415
1T!
#8402767
1a
#8402783
0c
#8403136
1c
#8403353
0i
#8500000
0!
08
#8500679
0W
0M
#8500817
0X
#8600000
1!
18
#8600514
1W
1M
#8600668
1X
#8602414
0j
1Y!
#8602783
0a
#8602786
1d
#8603053
0c
#8700000
0!
08
#8700679
0W
0M
#8700817
0X
#8800000
1!
18
#8800514
1W
1M
#8800668
1X
#8802414
1W!
0X!
0Y!
#8802767
1a
1c
#8802783
0d
#8802865
1d
#8802974
0e
#8803052
0f
#8803144
0c
#8900000
0!
08
#8900679
0W
0M
#8900817
0X
#9000000
1!
0,
18
0;
#9000514
1W
1M
#9000668
1X
#9000681
0]
0I
#9000819
0^
#9002414
0g
1Y!
#9002783
0a
#9003045
1c
#9003191
0h
#9100000
0!
08
#9100679
0W
0M
#9100817
0X
#9200000
1!
18
#9200514
1W
1M
#9200668
1X
#9202414
1X!
0Y!
#9202415
0T!
#9202767
1a
#9202783
0c
#9202890
1e
#9203136
1c
#9203143
0e
#9300000
0!
08
#9300679
0W
0M
#9300817
0X
#9400000
1!
18
#9400514
1W
1M
#9400668
1X
#9402414
1Y!
#9402776
0d
#9402783
0a
#9402787
1b
#9403037
1e
#9403053
0c
#9500000
0!
08
#9500679
0W
0M
#9500817
0X
#9600000
1!
18
#9600514
1W
1M
#9600668
1X
#9602414
0W!
0X!
1V!
0Y!
#9602767
1a
1c
1d
#9602783
0b
#9602855
0d
#9602867
1b
#9603016
1f
#9603088
0c
#9603143
0e
#9603151
0f
#9700000
0!
08
#9700679
0W
0M
#9700817
0X
#9800000
1!
18
#9800514
1W
1M
#9800668
1X
#9802414
1Y!
#9802777
0b
#9802783
0a
#9803037
1e
#9900000
0!
08
#9900679
0W
0M
#9900817
0X
#10000000
1!
1,
18
1;
#10000514
1W
1M
#10000516
1]
1I
#10000668
1X
#10000670
1^
#10002414
0V!
0Y!
#10002430
1;!
#10002767
1a
#10002842
1c
#10003078
0_
#10003101
1f
#10003143
0e
#10003144
0c
#10003177
1p
#10100000
0!
08
#10100679
0W
0M
#10100817
0X
#10200000
1!
18
#10200514
1W
1M
#10200668
1X
#10202414
1g
1Y!
#10202783
0a
#10203037
1e
#10203045
1c
#10203119
1i
#10203152
1h
#10300000
0!
08
#10300679
0W
0M
#10300817
0X
#10400000
1!
18
#10400514
1W
1M
#10400668
1X
#10402414
1j
1X!
0Y!
#10402415
1T!
#10402767
1a
#10402783
0c
#10403136
1c
#10403353
0i
#10500000
0!
08
#10500679
0W
0M
#10500817
0X
#10600000
1!
18
#10600514
1W
1M
#10600668
1X
#10602414
0j
1Y!
#10602783
0a
#10602786
1d
#10603053
0c
#10700000
0!
08
#10700679
0W
0M
#10700817
0X
#10800000
1!
18
#10800514
1W
1M
#10800668
1X
#10802414
1W!
0X!
0Y!
#10802767
1a
1c
#10802783
0d
#10802865
1d
#10802974
0e
#10803052
0f
#10803144
0c
#10900000
0!
08
#10900679
0W
0M
#10900817
0X
#11000000
1!
0,
18
0;
#11000514
1W
1M
#11000668
1X
#11000681
0]
0I
#11000819
0^
#11002414
0g
1Y!
#11002783
0a
#11003045
1c
#11003191
0h
#11100000
0!
08
#11100679
0W
0M
#11100817
0X
#11200000
1!
18
#11200514
1W
1M
#11200668
1X
#11202414
1X!
0Y!
#11202415
0T!
#11202767
1a
#11202783
0c
#11202890
1e
#11203136
1c
#11203143
0e
#11300000
0!
08
#11300679
0W
0M
#11300817
0X
#11400000
1!
18
#11400514
1W
1M
#11400668
1X
#11402414
1Y!
#11402776
0d
#11402783
0a
#11402787
1b
#11403037
1e
#11403053
0c
#11500000
0!
08
#11500679
0W
0M
#11500817
0X
#11600000
1!
18
#11600514
1W
1M
#11600668
1X
#11602414
0W!
0X!
1V!
0Y!
#11602767
1a
1c
1d
#11602783
0b
#11602855
0d
#11602867
1b
#11603016
1f
#11603088
0c
#11603143
0e
#11603151
0f
#11700000
0!
08
#11700679
0W
0M
#11700817
0X
#11800000
1!
18
#11800514
1W
1M
#11800668
1X
#11802414
1Y!
#11802777
0b
#11802783
0a
#11803037
1e
#11900000
0!
08
#11900679
0W
0M
#11900817
0X
#12000000
1!
1,
18
1;
#12000514
1W
1M
#12000516
1]
1I
#12000668
1X
#12000670
1^
#12002414
0V!
0Y!
#12002430
1:!
0;!
#12002767
1a
#12002842
1c
#12002943
1q
#12003070
0p
#12003101
1f
#12003139
1t
#12003143
0e
#12003144
0c
#12003149
1_
#12003197
0y
#12003226
0t
#12003252
1p
#12003284
1y
#12003576
0u
#12003652
1z
#12003681
1u
#12003721
0z
#12100000
0!
08
#12100679
0W
0M
#12100817
0X
#12200000
1!
18
#12200514
1W
1M
#12200668
1X
#12202414
1g
1Y!
#12202783
0a
#12203037
1e
#12203045
1c
#12203119
1i
#12203152
1h
#12300000
0!
08
#12300679
0W
0M
#12300817
0X
#12400000
1!
18
#12400514
1W
1M
#12400668
1X
#12402414
1j
1X!
0Y!
#12402415
1T!
#12402767
1a
#12402783
0c
#12403136
1c
#12403353
0i
#12500000
0!
08
#12500679
0W
0M
#12500817
0X
#12600000
1!
18
#12600514
1W
1M
#12600668
1X
#12602414
0j
1Y!
#12602783
0a
#12602786
1d
#12603053
0c
#12700000
0!
08
#12700679
0W
0M
#12700817
0X
#12800000
1!
18
#12800514
1W
1M
#12800668
1X
#12802414
1W!
0X!
0Y!
#12802767
1a
1c
#12802783
0d
#12802865
1d
#12802974
0e
#12803052
0f
#12803144
0c
#12900000
0!
08
#12900679
0W
0M
#12900817
0X
#13000000
1!
0,
18
0;
#13000514
1W
1M
#13000668
1X
#13000681
0]
0I
#13000819
0^
#13002414
0g
1Y!
#13002783
0a
#13003045
1c
#13003191
0h
#13100000
0!
08
#13100679
0W
0M
#13100817
0X
#13200000
1!
18
#13200514
1W
1M
#13200668
1X
#13202414
1X!
0Y!
#13202415
0T!
#13202767
1a
#13202783
0c
#13202890
1e
#13203136
1c
#13203143
0e
#13300000
0!
08
#13300679
0W
0M
#13300817
0X
#13400000
1!
18
#13400514
1W
1M
#13400668
1X
#13402414
1Y!
#13402776
0d
#13402783
0a
#13402787
1b
#13403037
1e
#13403053
0c
#13500000
0!
08
#13500679
0W
0M
#13500817
0X
#13600000
1!
18
#13600514
1W
1M
#13600668
1X
#13602414
0W!
0X!
1V!
0Y!
#13602767
1a
1c
1d
#13602783
0b
#13602855
0d
#13602867
1b
#13603016
1f
#13603088
0c
#13603143
0e
#13603151
0f
#13700000
0!
08
#13700679
0W
0M
#13700817
0X
#13800000
1!
18
#13800514
1W
1M
#13800668
1X
#13802414
1Y!
#13802777
0b
#13802783
0a
#13803037
1e
#13900000
0!
08
#13900679
0W
0M
#13900817
0X
#14000000
1!
1,
18
1;
#14000514
1W
1M
#14000516
1]
1I
#14000668
1X
#14000670
1^
#14002414
0V!
0Y!
#14002430
1;!
#14002767
1a
#14002842
1c
#14003078
0_
#14003101
1f
#14003143
0e
#14003144
0c
#14003202
0p
#14003279
1t
#14003337
0y
#14003716
0u
#14003792
1z
#14100000
0!
08
#14100679
0W
0M
#14100817
0X
#14200000
1!
18
#14200514
1W
1M
#14200668
1X
#14202414
1g
1Y!
#14202783
0a
#14203037
1e
#14203045
1c
#14203119
1i
#14203152
1h
#14300000
0!
08
#14300679
0W
0M
#14300817
0X
#14400000
1!
18
#14400514
1W
1M
#14400668
1X
#14402414
1j
1X!
0Y!
#14402415
1T!
#14402767
1a
#14402783
0c
#14403136
1c
#14403353
0i
#14500000
0!
08
#14500679
0W
0M
#14500817
0X
#14600000
1!
18
#14600514
1W
1M
#14600668
1X
#14602414
0j
1Y!
#14602783
0a
#14602786
1d
#14603053
0c
#14700000
0!
08
#14700679
0W
0M
#14700817
0X
#14800000
1!
18
#14800514
1W
1M
#14800668
1X
#14802414
1W!
0X!
0Y!
#14802767
1a
1c
#14802783
0d
#14802865
1d
#14802974
0e
#14803052
0f
#14803144
0c
#14900000
0!
08
#14900679
0W
0M
#14900817
0X
#15000000
1!
0,
18
0;
#15000514
1W
1M
#15000668
1X
#15000681
0]
0I
#15000819
0^
#15002414
0g
1Y!
#15002783
0a
#15003045
1c
#15003191
0h
