BE/Anemo/anemometre/simulation/qsim/Anemometre.msim.vcd
$comment
	File created using the following command:
		vcd file Anemometre.msim.vcd -direction
$end
$date
	Tue Oct 11 14:28:29 2022
$end
$version
	ModelSim Version 10.5b
$end
$timescale
	1ps
$end

$scope module block1_vhd_vec_tst $end
$var wire 1 ! CLK_50M $end
$var wire 1 " continu $end
$var wire 1 # data_anemometre [7] $end
$var wire 1 $ data_anemometre [6] $end
$var wire 1 % data_anemometre [5] $end
$var wire 1 & data_anemometre [4] $end
$var wire 1 ' data_anemometre [3] $end
$var wire 1 ( data_anemometre [2] $end
$var wire 1 ) data_anemometre [1] $end
$var wire 1 * data_anemometre [0] $end
$var wire 1 + data_valid $end
$var wire 1 , in_freq_anemometre $end
$var wire 1 - raz_n $end
$var wire 1 . start_stop $end

$scope module i1 $end
$var wire 1 / gnd $end
$var wire 1 0 vcc $end
$var wire 1 1 unknown $end
$var wire 1 2 devoe $end
$var wire 1 3 devclrn $end
$var wire 1 4 devpor $end
$var wire 1 5 ww_devoe $end
$var wire 1 6 ww_devclrn $end
$var wire 1 7 ww_devpor $end
$var wire 1 8 ww_data_valid $end
$var wire 1 9 ww_CLK_50M $end
$var wire 1 : ww_continu $end
$var wire 1 ; ww_start_stop $end
$var wire 1 < ww_in_freq_anemometre $end
$var wire 1 = ww_raz_n $end
$var wire 1 > ww_data_anemometre [7] $end
$var wire 1 ? ww_data_anemometre [6] $end
$var wire 1 @ ww_data_anemometre [5] $end
$var wire 1 A ww_data_anemometre [4] $end
$var wire 1 B ww_data_anemometre [3] $end
$var wire 1 C ww_data_anemometre [2] $end
$var wire 1 D ww_data_anemometre [1] $end
$var wire 1 E ww_data_anemometre [0] $end
$var wire 1 F \in_freq_anemometre~inputclkctrl_INCLK_bus\ [3] $end
$var wire 1 G \in_freq_anemometre~inputclkctrl_INCLK_bus\ [2] $end
$var wire 1 H \in_freq_anemometre~inputclkctrl_INCLK_bus\ [1] $end
$var wire 1 I \in_freq_anemometre~inputclkctrl_INCLK_bus\ [0] $end
$var wire 1 J \CLK_50M~inputclkctrl_INCLK_bus\ [3] $end
$var wire 1 K \CLK_50M~inputclkctrl_INCLK_bus\ [2] $end
$var wire 1 L \CLK_50M~inputclkctrl_INCLK_bus\ [1] $end
$var wire 1 M \CLK_50M~inputclkctrl_INCLK_bus\ [0] $end
$var wire 1 N \data_valid~output_o\ $end
$var wire 1 O \data_anemometre[7]~output_o\ $end
$var wire 1 P \data_anemometre[6]~output_o\ $end
$var wire 1 Q \data_anemometre[5]~output_o\ $end
$var wire 1 R \data_anemometre[4]~output_o\ $end
$var wire 1 S \data_anemometre[3]~output_o\ $end
$var wire 1 T \data_anemometre[2]~output_o\ $end
$var wire 1 U \data_anemometre[1]~output_o\ $end
$var wire 1 V \data_anemometre[0]~output_o\ $end
$var wire 1 W \CLK_50M~input_o\ $end
$var wire 1 X \CLK_50M~inputclkctrl_outclk\ $end
$var wire 1 Y \start_stop~input_o\ $end
$var wire 1 Z \continu~input_o\ $end
$var wire 1 [ \inst4|tmp~0_combout\ $end
$var wire 1 \ \inst4|data_valid~q\ $end
$var wire 1 ] \in_freq_anemometre~input_o\ $end
$var wire 1 ^ \in_freq_anemometre~inputclkctrl_outclk\ $end
$var wire 1 _ \inst|cpt[0]~21_combout\ $end
$var wire 1 ` \raz_n~input_o\ $end
$var wire 1 a \inst|cpt[1]~7_combout\ $end
$var wire 1 b \inst|cpt[1]~8\ $end
$var wire 1 c \inst|cpt[2]~9_combout\ $end
$var wire 1 d \inst|cpt[2]~10\ $end
$var wire 1 e \inst|cpt[3]~11_combout\ $end
$var wire 1 f \inst|cpt[3]~12\ $end
$var wire 1 g \inst|cpt[4]~13_combout\ $end
$var wire 1 h \inst|cpt[4]~14\ $end
$var wire 1 i \inst|cpt[5]~15_combout\ $end
$var wire 1 j \inst|cpt[5]~16\ $end
$var wire 1 k \inst|cpt[6]~17_combout\ $end
$var wire 1 l \inst|cpt[6]~18\ $end
$var wire 1 m \inst|cpt[7]~19_combout\ $end
$var wire 1 n \inst2|cpt[0]~2_combout\ $end
$var wire 1 o \inst2|cpt~0_combout\ $end
$var wire 1 p \inst2|cpt~1_combout\ $end
$var wire 1 q \inst2|Add0~0_combout\ $end
$var wire 1 r \inst2|clk_1hz~0_combout\ $end
$var wire 1 s \inst2|clk_1hz~1_combout\ $end
$var wire 1 t \inst2|clk_1hz~q\ $end
$var wire 1 u \inst6|etat[1]~0_combout\ $end
$var wire 1 v \inst6|edge~0_combout\ $end
$var wire 1 w \inst6|edge~q\ $end
$var wire 1 x \inst4|tmp1[7]~0_combout\ $end
$var wire 1 y \inst4|tmp~1_combout\ $end
$var wire 1 z \inst4|tmp~2_combout\ $end
$var wire 1 { \inst4|data_anemometre~0_combout\ $end
$var wire 1 | \inst4|data_anemometre[7]~1_combout\ $end
$var wire 1 } \inst4|tmp1[6]~feeder_combout\ $end
$var wire 1 ~ \inst4|tmp~3_combout\ $end
$var wire 1 !! \inst4|data_anemometre~2_combout\ $end
$var wire 1 "! \inst4|tmp1[5]~feeder_combout\ $end
$var wire 1 #! \inst4|tmp~4_combout\ $end
$var wire 1 $! \inst4|data_anemometre~3_combout\ $end
$var wire 1 %! \inst4|tmp1[4]~feeder_combout\ $end
$var wire 1 &! \inst4|tmp~5_combout\ $end
$var wire 1 '! \inst4|data_anemometre~4_combout\ $end
$var wire 1 (! \inst4|tmp1[3]~feeder_combout\ $end
$var wire 1 )! \inst4|tmp~6_combout\ $end
$var wire 1 *! \inst4|data_anemometre~5_combout\ $end
$var wire 1 +! \inst4|tmp1[2]~feeder_combout\ $end
$var wire 1 ,! \inst4|tmp~7_combout\ $end
$var wire 1 -! \inst4|data_anemometre~6_combout\ $end
$var wire 1 .! \inst4|tmp1[1]~feeder_combout\ $end
$var wire 1 /! \inst4|tmp~8_combout\ $end
$var wire 1 0! \inst4|data_anemometre~7_combout\ $end
$var wire 1 1! \inst4|tmp1[0]~feeder_combout\ $end
$var wire 1 2! \inst4|tmp~9_combout\ $end
$var wire 1 3! \inst4|data_anemometre~8_combout\ $end
$var wire 1 4! \inst6|etat\ [1] $end
$var wire 1 5! \inst6|etat\ [0] $end
$var wire 1 6! \inst|cpt\ [7] $end
$var wire 1 7! \inst|cpt\ [6] $end
$var wire 1 8! \inst|cpt\ [5] $end
$var wire 1 9! \inst|cpt\ [4] $end
$var wire 1 :! \inst|cpt\ [3] $end
$var wire 1 ;! \inst|cpt\ [2] $end
$var wire 1 <! \inst|cpt\ [1] $end
$var wire 1 =! \inst|cpt\ [0] $end
$var wire 1 >! \inst4|data_anemometre\ [7] $end
$var wire 1 ?! \inst4|data_anemometre\ [6] $end
$var wire 1 @! \inst4|data_anemometre\ [5] $end
$var wire 1 A! \inst4|data_anemometre\ [4] $end
$var wire 1 B! \inst4|data_anemometre\ [3] $end
$var wire 1 C! \inst4|data_anemometre\ [2] $end
$var wire 1 D! \inst4|data_anemometre\ [1] $end
$var wire 1 E! \inst4|data_anemometre\ [0] $end
$var wire 1 F! \inst4|tmp\ [7] $end
$var wire 1 G! \inst4|tmp\ [6] $end
$var wire 1 H! \inst4|tmp\ [5] $end
$var wire 1 I! \inst4|tmp\ [4] $end
$var wire 1 J! \inst4|tmp\ [3] $end
$var wire 1 K! \inst4|tmp\ [2] $end
$var wire 1 L! \inst4|tmp\ [1] $end
$var wire 1 M! \inst4|tmp\ [0] $end
$var wire 1 N! \inst4|tmp1\ [7] $end
$var wire 1 O! \inst4|tmp1\ [6] $end
$var wire 1 P! \inst4|tmp1\ [5] $end
$var wire 1 Q! \inst4|tmp1\ [4] $end
$var wire 1 R! \inst4|tmp1\ [3] $end
$var wire 1 S! \inst4|tmp1\ [2] $end
$var wire 1 T! \inst4|tmp1\ [1] $end
$var wire 1 U! \inst4|tmp1\ [0] $end
$var wire 1 V! \inst2|cpt\ [3] $end
$var wire 1 W! \inst2|cpt\ [2] $end
$var wire 1 X! \inst2|cpt\ [1] $end
$var wire 1 Y! \inst2|cpt\ [0] $end
$var wire 1 Z! \ALT_INV_raz_n~input_o\ $end
$upscope $end
$upscope $end
$enddefinitions $end
#0
$dumpvars
1!
0"
0+
1,
0-
0.
0/
10
x1
12
13
14
15
16
17
08
19
0:
0;
1<
0=
0N
0O
0P
0Q
0R
0S
0T
0U
0V
1W
1X
0Y
0Z
0[
0\
1]
1^
1_
0`
0a
0b
0c
1d
0e
0f
0g
1h
0i
0j
0k
1l
0m
1n
0o
0p
0q
0r
1s
0t
0u
0v
0w
1x
0y
0z
0{
1|
0}
0~
0!!
0"!
0#!
0$!
0%!
0&!
0'!
0(!
0)!
0*!
0+!
0,!
0-!
0.!
0/!
00!
01!
02!
03!
1Z!
0>
0?
0@
0A
0B
0C
0D
0E
04!
x5!
06!
07!
08!
09!
0:!
0;!
0<!
0=!
0>!
0?!
0@!
0A!
0B!
0C!
0D!
0E!
0F!
0G!
0H!
0I!
0J!
0K!
0L!
0M!
0N!
0O!
0P!
0Q!
0R!
0S!
0T!
0U!
0V!
0W!
0X!
0Y!
1J
1K
1L
1M
1F
1G
1H
1I
0#
0$
0%
0&
0'
0(
0)
0*
$end
#150000
1"
1:
1Z
1[
0x
1z
0|
#710000
0"
0:
0Z
0[
1x
0z
1|
#1000000
0!
09
0W
0M
0X
#2000000
1!
19
1W
1M
1X
1Y!
1t
1u
1v
0n
1p
1r
#3000000
0!
09
0W
0M
0X
#4000000
1!
19
1W
1M
1X
0Y!
1X!
14!
1w
0x
1z
0v
1n
#5000000
0!
09
0W
0M
0X
#6000000
1!
19
1W
1M
1X
1Y!
0w
1x
0z
0n
0p
1q
#7000000
0!
09
0W
0M
0X
#7680000
1.
1;
1Y
1[
0x
#8000000
1!
19
1W
1M
1X
1\
0Y!
0X!
1W!
0s
1n
0r
1N
18
1+
#9000000
0!
09
0W
0M
0X
#10000000
1!
19
1W
1M
1X
1Y!
0t
0u
0n
1p
#11000000
0!
09
0W
0M
0X
#12000000
1!
19
1W
1M
1X
0Y!
1X!
04!
1n
#13000000
0!
09
0W
0M
0X
#14000000
1!
19
1W
1M
1X
1Y!
0n
1o
0p
0q
1r
#15000000
0!
09
0W
0M
0X
#16000000
1!
19
1W
1M
1X
0Y!
1V!
0X!
0W!
1n
0r
#17000000
0!
09
0W
0M
0X
#18000000
1!
19
1W
1M
1X
1Y!
0n
0o
1r
#19000000
0!
09
0W
0M
0X
#20000000
1!
19
1W
1M
1X
0Y!
0V!
1s
1n
0r
#21000000
0!
09
0W
0M
0X
#22000000
1!
19
1W
1M
1X
1Y!
1t
1u
1v
0n
1p
1r
#23000000
0!
09
0W
0M
0X
#24000000
1!
19
1W
1M
1X
0Y!
1X!
14!
1w
0v
1n
#25000000
0!
09
0W
0M
0X
#26000000
1!
19
1W
1M
1X
1Y!
0w
0n
0p
1q
#27000000
0!
09
0W
0M
0X
#28000000
1!
19
1W
1M
1X
0Y!
0X!
1W!
0s
1n
0r
#29000000
0!
09
0W
0M
0X
#30000000
1!
19
1W
1M
1X
1Y!
0t
0u
0n
1p
#31000000
0!
09
0W
0M
0X
#32000000
1!
19
1W
1M
1X
0Y!
1X!
04!
1n
#33000000
0!
09
0W
0M
0X
#34000000
1!
19
1W
1M
1X
1Y!
0n
1o
0p
0q
1r
#35000000
0!
09
0W
0M
0X
#36000000
1!
19
1W
1M
1X
0Y!
1V!
0X!
0W!
1n
0r
#37000000
0!
09
0W
0M
0X
#38000000
1!
19
1W
1M
1X
1Y!
0n
0o
1r
#39000000
0!
09
0W
0M
0X
#40000000
1!
19
1W
1M
1X
0Y!
0V!
1s
1n
0r
#41000000
0!
09
0W
0M
0X
#42000000
1!
19
1W
1M
1X
1Y!
1t
1u
1v
0n
1p
1r
#43000000
0!
09
0W
0M
0X
#44000000
1!
19
1W
1M
1X
0Y!
1X!
14!
1w
0v
1n
#45000000
0!
09
0W
0M
0X
#46000000
1!
19
1W
1M
1X
1Y!
0w
0n
0p
1q
#47000000
0!
09
0W
0M
0X
#48000000
1!
19
1W
1M
1X
0Y!
0X!
1W!
0s
1n
0r
#49000000
0!
09
0W
0M
0X
#50000000
1!
19
1W
1M
1X
1Y!
0t
0u
0n
1p
#51000000
0!
09
0W
0M
0X
#51200000
1"
1-
1:
1=
1`
1Z
0Z!
1z
0|
#52000000
1!
19
1W
1M
1X
0Y!
1X!
04!
1n
#53000000
0!
09
0W
0M
0X
#54000000
1!
19
1W
1M
1X
1Y!
0n
1o
0p
0q
1r
#55000000
0!
09
0W
0M
0X
#56000000
1!
19
1W
1M
1X
0Y!
1V!
0X!
0W!
1n
0r
#56320000
0-
0=
0`
1Z!
#57000000
0!
09
0W
0M
0X
#58000000
1!
19
1W
1M
1X
1Y!
0n
0o
1r
#59000000
0!
09
0W
0M
0X
#60000000
1!
19
1W
1M
1X
0Y!
0V!
1s
1n
0r
#61000000
0!
09
0W
0M
0X
#62000000
1!
19
1W
1M
1X
1Y!
1t
1u
1v
0n
1p
1r
#62720000
0"
0.
0:
0;
0Y
0Z
1|
0[
1x
0z
#63000000
0!
09
0W
0M
0X
#64000000
1!
19
1W
1M
1X
0\
0Y!
1X!
14!
1w
0x
1z
0v
1n
0N
08
0+
#65000000
0!
09
0W
0M
0X
#66000000
1!
19
1W
1M
1X
1Y!
0w
1x
0z
0n
0p
1q
#67000000
0!
09
0W
0M
0X
#68000000
1!
19
1W
1M
1X
0Y!
0X!
1W!
0s
1n
0r
#69000000
0!
09
0W
0M
0X
#70000000
1!
19
1W
1M
1X
1Y!
0t
0u
0n
1p
#71000000
0!
09
0W
0M
0X
#72000000
1!
19
1W
1M
1X
0Y!
1X!
04!
1n
#73000000
0!
09
0W
0M
0X
#74000000
1!
19
1W
1M
1X
1Y!
0n
1o
0p
0q
1r
#75000000
0!
09
0W
0M
0X
#76000000
1!
19
1W
1M
1X
0Y!
1V!
0X!
0W!
1n
0r
#77000000
0!
09
0W
0M
0X
#78000000
1!
19
1W
1M
1X
1Y!
0n
0o
1r
#79000000
0!
09
0W
0M
0X
#80000000
1!
19
1W
1M
1X
0Y!
0V!
1s
1n
0r
#81000000
0!
09
0W
0M
0X
#82000000
1!
19
1W
1M
1X
1Y!
1t
1u
1v
0n
1p
1r
#83000000
0!
09
0W
0M
0X
#84000000
1!
19
1W
1M
1X
0Y!
1X!
14!
1w
0x
1z
0v
1n
#85000000
0!
09
0W
0M
0X
#86000000
1!
19
1W
1M
1X
1Y!
0w
1x
0z
0n
0p
1q
#87000000
0!
09
0W
0M
0X
#87040000
0,
0<
0]
0I
0^
#88000000
1!
19
1W
1M
1X
0Y!
0X!
1W!
0s
1n
0r
#89000000
0!
09
0W
0M
0X
#90000000
1!
19
1W
1M
1X
1Y!
0t
0u
0n
1p
#91000000
0!
09
0W
0M
0X
#92000000
1!
19
1W
1M
1X
0Y!
1X!
04!
1n
#93000000
0!
09
0W
0M
0X
#94000000
1!
19
1W
1M
1X
1Y!
0n
1o
0p
0q
1r
#95000000
0!
09
0W
0M
0X
#96000000
1!
19
1W
1M
1X
0Y!
1V!
0X!
0W!
1n
0r
#97000000
0!
09
0W
0M
0X
#98000000
1!
19
1W
1M
1X
1Y!
0n
0o
1r
#99000000
0!
09
0W
0M
0X
